------------------------------------------------------------------------
r1134654 | bettio | 2010-06-05 08:05:39 +1200 (Sat, 05 Jun 2010) | 2 lines

Removed due to a license issue. (incompatible CC).

------------------------------------------------------------------------
r1135896 | pino | 2010-06-08 21:16:48 +1200 (Tue, 08 Jun 2010) | 2 lines

'Hail' was removed few days ago

------------------------------------------------------------------------
r1136129 | scripty | 2010-06-09 14:03:43 +1200 (Wed, 09 Jun 2010) | 1 line

SVN_SILENT made messages (.desktop file)
------------------------------------------------------------------------
r1142449 | scripty | 2010-06-25 14:19:04 +1200 (Fri, 25 Jun 2010) | 1 line

SVN_SILENT made messages (.desktop file)
------------------------------------------------------------------------
